{ truffleProjectHome:
   '/home/fabianorodrigo/Projetos/bitbucket/solidity-test/workdir/simple-storage',
  contracts:
   { SimpleStorage:
      { projectGraph: [Circular],
        name: 'SimpleStorage',
        kind: 'contract',
        isAbstract: false,
        functions:
         { get:
            [ { name: 'get',
                signature: 'get()',
                isPayable: false,
                visibility: 'public',
                contract: [Circular],
                isConstructor: false,
                functionDefinition: [Object],
                localVariables: [],
                modifiers: {},
                return: [Array],
                parameters: [],
                stateVariablesWritten: {},
                calledFunctions: {},
                functionCallings: {} } ],
           set:
            [ { name: 'set',
                signature: 'set(string)',
                isPayable: false,
                visibility: 'public',
                contract: [Circular],
                isConstructor: false,
                functionDefinition: [Object],
                localVariables: [],
                modifiers: {},
                return: [],
                parameters: [Array],
                stateVariablesWritten: [Object],
                calledFunctions: {},
                functionCallings: {} } ] },
        modifiers: {},
        stateVariables:
         { _val:
            { functionsWrite: { set: [Array] },
              contract: [Circular],
              name: '_val',
              isArray: false,
              initialValue: null,
              type: 'string',
              visibility: 'public',
              storageLocation: undefined,
              isConstant: false,
              isAddressContract: false } },
        dependencies: {},
        inheritsFrom: {},
        structs: {},
        enums: {},
        isThirdPartyLib: false,
        isOnlyForTest: false,
        contractDefinition:
         { type: 'ContractDefinition',
           name: 'SimpleStorage',
           baseContracts: [],
           subNodes:
            [ { type: 'StateVariableDeclaration',
                variables: [Array],
                initialValue: null,
                loc: [Object] },
              { type: 'FunctionDefinition',
                name: 'get',
                parameters: [],
                returnParameters: [Array],
                body: [Object],
                visibility: 'public',
                modifiers: [],
                isConstructor: false,
                stateMutability: 'view',
                loc: [Object] },
              { type: 'FunctionDefinition',
                name: 'set',
                parameters: [Array],
                returnParameters: null,
                body: [Object],
                visibility: 'public',
                modifiers: [],
                isConstructor: false,
                stateMutability: null,
                loc: [Object] } ],
           kind: 'contract',
           loc:
            { start: { line: 3, column: 0 }, end: { line: 13, column: 0 } } },
        instanceNeeded: true,
        solFilePath:
         '/home/fabianorodrigo/Projetos/bitbucket/solidity-test/workdir/simple-storage/contracts/SimpleStorage.sol' },
     Local:
      { projectGraph: [Circular],
        name: 'Local',
        kind: 'contract',
        isAbstract: false,
        functions:
         { constructor:
            [ { name: 'constructor',
                signature: 'Local()',
                isPayable: false,
                visibility: 'public',
                contract: [Circular],
                isConstructor: true,
                functionDefinition: [Object],
                localVariables: [],
                modifiers: {},
                return: [],
                parameters: [],
                stateVariablesWritten: {},
                calledFunctions: {},
                functionCallings: {} } ] },
        modifiers: {},
        stateVariables:
         { local:
            { functionsWrite: {},
              contract: [Circular],
              name: 'local',
              isArray: false,
              initialValue: 0,
              type: 'uint',
              visibility: 'default',
              storageLocation: undefined,
              isConstant: false,
              isAddressContract: false } },
        dependencies: {},
        inheritsFrom: {},
        structs: {},
        enums: {},
        isThirdPartyLib: true,
        isOnlyForTest: false,
        contractDefinition:
         { type: 'ContractDefinition',
           name: 'Local',
           baseContracts: [],
           subNodes:
            [ { type: 'StateVariableDeclaration',
                variables: [Array],
                initialValue: null,
                loc: [Object] },
              { type: 'FunctionDefinition',
                name: 'Local',
                parameters: [],
                returnParameters: null,
                body: [Object],
                visibility: 'public',
                modifiers: [],
                isConstructor: true,
                stateMutability: null,
                loc: [Object] } ],
           kind: 'contract',
           loc:
            { start: { line: 3, column: 0 }, end: { line: 9, column: 0 } } },
        instanceNeeded: false,
        solFilePath:
         '/home/fabianorodrigo/Projetos/bitbucket/solidity-test/workdir/simple-storage/node_modules/truffle/test/sources/ethpm/contracts/Local.sol' },
     PLCRVoting:
      { projectGraph: [Circular],
        name: 'PLCRVoting',
        kind: 'contract',
        isAbstract: false,
        functions:
         { isExpired:
            [ { name: 'isExpired',
                signature: 'isExpired(uint)',
                isPayable: false,
                visibility: 'public',
                contract: [Circular],
                isConstructor: false,
                functionDefinition: [Object],
                localVariables: [],
                modifiers: {},
                return: [Array],
                parameters: [Array],
                stateVariablesWritten: {},
                calledFunctions: {},
                functionCallings: {} } ],
           attrUUID:
            [ { name: 'attrUUID',
                signature: 'attrUUID(address,uint)',
                isPayable: false,
                visibility: 'public',
                contract: [Circular],
                isConstructor: false,
                functionDefinition: [Object],
                localVariables: [],
                modifiers: {},
                return: [Array],
                parameters: [Array],
                stateVariablesWritten: {},
                calledFunctions: [Object],
                functionCallings: [Object] } ] },
        modifiers: {},
        stateVariables:
         { local:
            { functionsWrite: {},
              contract: [Circular],
              name: 'local',
              isArray: false,
              initialValue: 0,
              type: 'uint',
              visibility: 'default',
              storageLocation: undefined,
              isConstant: false,
              isAddressContract: false },
           MAX_UINT256:
            { functionsWrite: {},
              contract: [Circular],
              name: 'MAX_UINT256',
              isArray: false,
              initialValue: undefined,
              type: 'uint256',
              visibility: 'default',
              storageLocation: undefined,
              isConstant: true,
              isAddressContract: false },
           name:
            { functionsWrite: {},
              contract: [Circular],
              name: 'name',
              isArray: false,
              initialValue: null,
              type: 'string',
              visibility: 'public',
              storageLocation: undefined,
              isConstant: false,
              isAddressContract: false },
           decimals:
            { functionsWrite: {},
              contract: [Circular],
              name: 'decimals',
              isArray: false,
              initialValue: 0,
              type: 'uint8',
              visibility: 'public',
              storageLocation: undefined,
              isConstant: false,
              isAddressContract: false },
           symbol:
            { functionsWrite: {},
              contract: [Circular],
              name: 'symbol',
              isArray: false,
              initialValue: null,
              type: 'string',
              visibility: 'public',
              storageLocation: undefined,
              isConstant: false,
              isAddressContract: false },
           balances:
            { functionsWrite: {},
              contract: [Circular],
              name: 'balances',
              isArray: false,
              initialValue: null,
              type: 'mapping(address=>uint256)})',
              visibility: 'default',
              storageLocation: undefined,
              isConstant: false,
              isAddressContract: false },
           allowed:
            { functionsWrite: {},
              contract: [Circular],
              name: 'allowed',
              isArray: false,
              initialValue: null,
              type: 'mapping(address=>mapping(address=>uint256)}))})',
              visibility: 'default',
              storageLocation: undefined,
              isConstant: false,
              isAddressContract: false },
           totalSupply:
            { functionsWrite: {},
              contract: [Circular],
              name: 'totalSupply',
              isArray: false,
              initialValue: 0,
              type: 'uint256',
              visibility: 'public',
              storageLocation: undefined,
              isConstant: false,
              isAddressContract: false } },
        dependencies:
         { Local:
            { projectGraph: [Circular],
              name: 'Local',
              kind: 'contract',
              isAbstract: false,
              functions: { constructor: [Array] },
              modifiers: {},
              stateVariables: { local: [Object] },
              dependencies: {},
              inheritsFrom: {},
              structs: {},
              enums: {},
              isThirdPartyLib: true,
              isOnlyForTest: false,
              contractDefinition:
               { type: 'ContractDefinition',
                 name: 'Local',
                 baseContracts: [],
                 subNodes: [Array],
                 kind: 'contract',
                 loc: [Object] },
              instanceNeeded: false,
              solFilePath:
               '/home/fabianorodrigo/Projetos/bitbucket/solidity-test/workdir/simple-storage/node_modules/truffle/test/sources/ethpm/contracts/Local.sol' } },
        inheritsFrom:
         { EIP20:
            { contract:
               { projectGraph: [Circular],
                 name: 'EIP20',
                 kind: 'contract',
                 isAbstract: false,
                 functions: [Object],
                 modifiers: {},
                 stateVariables: [Object],
                 dependencies: [Object],
                 inheritsFrom: [Object],
                 structs: {},
                 enums: {},
                 isThirdPartyLib: true,
                 isOnlyForTest: false,
                 contractDefinition: [Object],
                 instanceNeeded: false,
                 solFilePath:
                  '/home/fabianorodrigo/Projetos/bitbucket/solidity-test/workdir/simple-storage/node_modules/truffle/test/sources/ethpm/installed_contracts/tokens/contracts/eip20/EIP20.sol' },
              parameters: [],
              level: 0 },
           EIP20Interface:
            { contract:
               { projectGraph: [Circular],
                 name: 'EIP20Interface',
                 kind: 'contract',
                 isAbstract: true,
                 functions: {},
                 modifiers: {},
                 stateVariables: [Object],
                 dependencies: {},
                 inheritsFrom: {},
                 structs: {},
                 enums: {},
                 isThirdPartyLib: true,
                 isOnlyForTest: false,
                 contractDefinition: [Object],
                 instanceNeeded: false,
                 solFilePath:
                  '/home/fabianorodrigo/Projetos/bitbucket/solidity-test/workdir/simple-storage/node_modules/truffle/test/sources/ethpm/installed_contracts/tokens/contracts/eip20/EIP20Interface.sol' },
              parameters: [],
              level: 1 },
           Local:
            { contract:
               { projectGraph: [Circular],
                 name: 'Local',
                 kind: 'contract',
                 isAbstract: false,
                 functions: [Object],
                 modifiers: {},
                 stateVariables: [Object],
                 dependencies: {},
                 inheritsFrom: {},
                 structs: {},
                 enums: {},
                 isThirdPartyLib: true,
                 isOnlyForTest: false,
                 contractDefinition: [Object],
                 instanceNeeded: false,
                 solFilePath:
                  '/home/fabianorodrigo/Projetos/bitbucket/solidity-test/workdir/simple-storage/node_modules/truffle/test/sources/ethpm/contracts/Local.sol' },
              parameters: [],
              level: 0 } },
        structs: {},
        enums: {},
        isThirdPartyLib: true,
        isOnlyForTest: false,
        contractDefinition:
         { type: 'ContractDefinition',
           name: 'PLCRVoting',
           baseContracts:
            [ { type: 'InheritanceSpecifier',
                baseName: [Object],
                arguments: [],
                loc: [Object] },
              { type: 'InheritanceSpecifier',
                baseName: [Object],
                arguments: [],
                loc: [Object] } ],
           subNodes:
            [ { type: 'FunctionDefinition',
                name: 'isExpired',
                parameters: [Array],
                returnParameters: [Array],
                body: [Object],
                visibility: 'public',
                modifiers: [],
                isConstructor: false,
                stateMutability: 'constant',
                loc: [Object] },
              { type: 'FunctionDefinition',
                name: 'attrUUID',
                parameters: [Array],
                returnParameters: [Array],
                body: [Object],
                visibility: 'public',
                modifiers: [],
                isConstructor: false,
                stateMutability: 'pure',
                loc: [Object] } ],
           kind: 'contract',
           loc:
            { start: { line: 6, column: 0 }, end: { line: 15, column: 0 } } },
        instanceNeeded: false,
        solFilePath:
         '/home/fabianorodrigo/Projetos/bitbucket/solidity-test/workdir/simple-storage/node_modules/truffle/test/sources/ethpm/contracts/PLCRVoting.sol' },
     EIP20:
      { projectGraph: [Circular],
        name: 'EIP20',
        kind: 'contract',
        isAbstract: false,
        functions:
         { constructor:
            [ { name: 'constructor',
                signature: 'EIP20(uint256,string,uint8,string)',
                isPayable: false,
                visibility: 'public',
                contract: [Circular],
                isConstructor: true,
                functionDefinition: [Object],
                localVariables: [],
                modifiers: {},
                return: [],
                parameters: [Array],
                stateVariablesWritten: [Object],
                calledFunctions: {},
                functionCallings: {} } ],
           transfer:
            [ { name: 'transfer',
                signature: 'transfer(address,uint256)',
                isPayable: false,
                visibility: 'public',
                contract: [Circular],
                isConstructor: false,
                functionDefinition: [Object],
                localVariables: [],
                modifiers: {},
                return: [Array],
                parameters: [Array],
                stateVariablesWritten: {},
                calledFunctions: [Object],
                functionCallings: [Object] } ],
           transferFrom:
            [ { name: 'transferFrom',
                signature: 'transferFrom(address,address,uint256)',
                isPayable: false,
                visibility: 'public',
                contract: [Circular],
                isConstructor: false,
                functionDefinition: [Object],
                localVariables: [Array],
                modifiers: {},
                return: [Array],
                parameters: [Array],
                stateVariablesWritten: {},
                calledFunctions: [Object],
                functionCallings: [Object] } ],
           balanceOf:
            [ { name: 'balanceOf',
                signature: 'balanceOf(address)',
                isPayable: false,
                visibility: 'public',
                contract: [Circular],
                isConstructor: false,
                functionDefinition: [Object],
                localVariables: [],
                modifiers: {},
                return: [Array],
                parameters: [Array],
                stateVariablesWritten: {},
                calledFunctions: {},
                functionCallings: {} } ],
           approve:
            [ { name: 'approve',
                signature: 'approve(address,uint256)',
                isPayable: false,
                visibility: 'public',
                contract: [Circular],
                isConstructor: false,
                functionDefinition: [Object],
                localVariables: [],
                modifiers: {},
                return: [Array],
                parameters: [Array],
                stateVariablesWritten: {},
                calledFunctions: [Object],
                functionCallings: [Object] } ],
           allowance:
            [ { name: 'allowance',
                signature: 'allowance(address,address)',
                isPayable: false,
                visibility: 'public',
                contract: [Circular],
                isConstructor: false,
                functionDefinition: [Object],
                localVariables: [],
                modifiers: {},
                return: [Array],
                parameters: [Array],
                stateVariablesWritten: {},
                calledFunctions: {},
                functionCallings: {} } ] },
        modifiers: {},
        stateVariables:
         { MAX_UINT256:
            { functionsWrite: {},
              contract: [Circular],
              name: 'MAX_UINT256',
              isArray: false,
              initialValue: undefined,
              type: 'uint256',
              visibility: 'default',
              storageLocation: undefined,
              isConstant: true,
              isAddressContract: false },
           name:
            { functionsWrite: { constructor: [Array] },
              contract: [Circular],
              name: 'name',
              isArray: false,
              initialValue: null,
              type: 'string',
              visibility: 'public',
              storageLocation: undefined,
              isConstant: false,
              isAddressContract: false },
           decimals:
            { functionsWrite: { constructor: [Array] },
              contract: [Circular],
              name: 'decimals',
              isArray: false,
              initialValue: 0,
              type: 'uint8',
              visibility: 'public',
              storageLocation: undefined,
              isConstant: false,
              isAddressContract: false },
           symbol:
            { functionsWrite: { constructor: [Array] },
              contract: [Circular],
              name: 'symbol',
              isArray: false,
              initialValue: null,
              type: 'string',
              visibility: 'public',
              storageLocation: undefined,
              isConstant: false,
              isAddressContract: false },
           balances:
            { functionsWrite: {},
              contract: [Circular],
              name: 'balances',
              isArray: false,
              initialValue: null,
              type: 'mapping(address=>uint256)})',
              visibility: 'default',
              storageLocation: undefined,
              isConstant: false,
              isAddressContract: false },
           allowed:
            { functionsWrite: {},
              contract: [Circular],
              name: 'allowed',
              isArray: false,
              initialValue: null,
              type: 'mapping(address=>mapping(address=>uint256)}))})',
              visibility: 'default',
              storageLocation: undefined,
              isConstant: false,
              isAddressContract: false },
           totalSupply:
            { functionsWrite: { constructor: [Array] },
              contract: [Circular],
              name: 'totalSupply',
              isArray: false,
              initialValue: 0,
              type: 'uint256',
              visibility: 'public',
              storageLocation: undefined,
              isConstant: false,
              isAddressContract: false } },
        dependencies:
         { EIP20Interface:
            { projectGraph: [Circular],
              name: 'EIP20Interface',
              kind: 'contract',
              isAbstract: true,
              functions: {},
              modifiers: {},
              stateVariables: { totalSupply: [Object] },
              dependencies: {},
              inheritsFrom: {},
              structs: {},
              enums: {},
              isThirdPartyLib: true,
              isOnlyForTest: false,
              contractDefinition:
               { type: 'ContractDefinition',
                 name: 'EIP20Interface',
                 baseContracts: [],
                 subNodes: [Array],
                 kind: 'contract',
                 loc: [Object] },
              instanceNeeded: false,
              solFilePath:
               '/home/fabianorodrigo/Projetos/bitbucket/solidity-test/workdir/simple-storage/node_modules/truffle/test/sources/ethpm/installed_contracts/tokens/contracts/eip20/EIP20Interface.sol' } },
        inheritsFrom:
         { EIP20Interface:
            { contract:
               { projectGraph: [Circular],
                 name: 'EIP20Interface',
                 kind: 'contract',
                 isAbstract: true,
                 functions: {},
                 modifiers: {},
                 stateVariables: [Object],
                 dependencies: {},
                 inheritsFrom: {},
                 structs: {},
                 enums: {},
                 isThirdPartyLib: true,
                 isOnlyForTest: false,
                 contractDefinition: [Object],
                 instanceNeeded: false,
                 solFilePath:
                  '/home/fabianorodrigo/Projetos/bitbucket/solidity-test/workdir/simple-storage/node_modules/truffle/test/sources/ethpm/installed_contracts/tokens/contracts/eip20/EIP20Interface.sol' },
              parameters: [],
              level: 0 } },
        structs: {},
        enums: {},
        isThirdPartyLib: true,
        isOnlyForTest: false,
        contractDefinition:
         { type: 'ContractDefinition',
           name: 'EIP20',
           baseContracts:
            [ { type: 'InheritanceSpecifier',
                baseName: [Object],
                arguments: [],
                loc: [Object] } ],
           subNodes:
            [ { type: 'StateVariableDeclaration',
                variables: [Array],
                initialValue: [Object],
                loc: [Object] },
              { type: 'StateVariableDeclaration',
                variables: [Array],
                initialValue: null,
                loc: [Object] },
              { type: 'StateVariableDeclaration',
                variables: [Array],
                initialValue: null,
                loc: [Object] },
              { type: 'StateVariableDeclaration',
                variables: [Array],
                initialValue: null,
                loc: [Object] },
              { type: 'FunctionDefinition',
                name: 'EIP20',
                parameters: [Array],
                returnParameters: null,
                body: [Object],
                visibility: 'public',
                modifiers: [],
                isConstructor: true,
                stateMutability: null,
                loc: [Object] },
              { type: 'FunctionDefinition',
                name: 'transfer',
                parameters: [Array],
                returnParameters: [Array],
                body: [Object],
                visibility: 'public',
                modifiers: [],
                isConstructor: false,
                stateMutability: null,
                loc: [Object] },
              { type: 'FunctionDefinition',
                name: 'transferFrom',
                parameters: [Array],
                returnParameters: [Array],
                body: [Object],
                visibility: 'public',
                modifiers: [],
                isConstructor: false,
                stateMutability: null,
                loc: [Object] },
              { type: 'FunctionDefinition',
                name: 'balanceOf',
                parameters: [Array],
                returnParameters: [Array],
                body: [Object],
                visibility: 'public',
                modifiers: [],
                isConstructor: false,
                stateMutability: 'view',
                loc: [Object] },
              { type: 'FunctionDefinition',
                name: 'approve',
                parameters: [Array],
                returnParameters: [Array],
                body: [Object],
                visibility: 'public',
                modifiers: [],
                isConstructor: false,
                stateMutability: null,
                loc: [Object] },
              { type: 'FunctionDefinition',
                name: 'allowance',
                parameters: [Array],
                returnParameters: [Array],
                body: [Object],
                visibility: 'public',
                modifiers: [],
                isConstructor: false,
                stateMutability: 'view',
                loc: [Object] },
              { type: 'StateVariableDeclaration',
                variables: [Array],
                initialValue: null,
                loc: [Object] },
              { type: 'StateVariableDeclaration',
                variables: [Array],
                initialValue: null,
                loc: [Object] } ],
           kind: 'contract',
           loc:
            { start: { line: 8, column: 0 }, end: { line: 78, column: 0 } } },
        instanceNeeded: false,
        solFilePath:
         '/home/fabianorodrigo/Projetos/bitbucket/solidity-test/workdir/simple-storage/node_modules/truffle/test/sources/ethpm/installed_contracts/tokens/contracts/eip20/EIP20.sol' },
     EIP20Factory:
      { projectGraph: [Circular],
        name: 'EIP20Factory',
        kind: 'contract',
        isAbstract: false,
        functions:
         { constructor:
            [ { name: 'constructor',
                signature: 'EIP20Factory()',
                isPayable: false,
                visibility: 'public',
                contract: [Circular],
                isConstructor: true,
                functionDefinition: [Object],
                localVariables: [Array],
                modifiers: {},
                return: [],
                parameters: [],
                stateVariablesWritten: [Object],
                calledFunctions: {},
                functionCallings: {} } ],
           verifyEIP20:
            [ { name: 'verifyEIP20',
                signature: 'verifyEIP20(address)',
                isPayable: false,
                visibility: 'public',
                contract: [Circular],
                isConstructor: false,
                functionDefinition: [Object],
                localVariables: [Array],
                modifiers: {},
                return: [Array],
                parameters: [Array],
                stateVariablesWritten: {},
                calledFunctions: {},
                functionCallings: {} } ],
           codeAt:
            [ { name: 'codeAt',
                signature: 'codeAt(address)',
                isPayable: false,
                visibility: 'internal',
                contract: [Circular],
                isConstructor: false,
                functionDefinition: [Object],
                localVariables: [],
                modifiers: {},
                return: [Array],
                parameters: [Array],
                stateVariablesWritten: {},
                calledFunctions: {},
                functionCallings: {} } ],
           createEIP20:
            [ { name: 'createEIP20',
                signature: 'createEIP20(uint256,string,uint8,string)',
                isPayable: false,
                visibility: 'public',
                contract: [Circular],
                isConstructor: false,
                functionDefinition: [Object],
                localVariables: [Array],
                modifiers: {},
                return: [Array],
                parameters: [Array],
                stateVariablesWritten: {},
                calledFunctions: {},
                functionCallings: {} } ] },
        modifiers: {},
        stateVariables:
         { created:
            { functionsWrite: {},
              contract: [Circular],
              name: 'created',
              isArray: false,
              initialValue: null,
              type: 'mapping(address=>address[])})',
              visibility: 'public',
              storageLocation: undefined,
              isConstant: false,
              isAddressContract: false },
           isEIP20:
            { functionsWrite: {},
              contract: [Circular],
              name: 'isEIP20',
              isArray: false,
              initialValue: null,
              type: 'mapping(address=>bool)})',
              visibility: 'public',
              storageLocation: undefined,
              isConstant: false,
              isAddressContract: false },
           EIP20ByteCode:
            { functionsWrite: { constructor: [Array] },
              contract: [Circular],
              name: 'EIP20ByteCode',
              isArray: false,
              initialValue: null,
              type: 'bytes',
              visibility: 'public',
              storageLocation: undefined,
              isConstant: false,
              isAddressContract: false } },
        dependencies:
         { EIP20:
            { projectGraph: [Circular],
              name: 'EIP20',
              kind: 'contract',
              isAbstract: false,
              functions:
               { constructor: [Array],
                 transfer: [Array],
                 transferFrom: [Array],
                 balanceOf: [Array],
                 approve: [Array],
                 allowance: [Array] },
              modifiers: {},
              stateVariables:
               { MAX_UINT256: [Object],
                 name: [Object],
                 decimals: [Object],
                 symbol: [Object],
                 balances: [Object],
                 allowed: [Object],
                 totalSupply: [Object] },
              dependencies: { EIP20Interface: [Object] },
              inheritsFrom: { EIP20Interface: [Object] },
              structs: {},
              enums: {},
              isThirdPartyLib: true,
              isOnlyForTest: false,
              contractDefinition:
               { type: 'ContractDefinition',
                 name: 'EIP20',
                 baseContracts: [Array],
                 subNodes: [Array],
                 kind: 'contract',
                 loc: [Object] },
              instanceNeeded: false,
              solFilePath:
               '/home/fabianorodrigo/Projetos/bitbucket/solidity-test/workdir/simple-storage/node_modules/truffle/test/sources/ethpm/installed_contracts/tokens/contracts/eip20/EIP20.sol' } },
        inheritsFrom: {},
        structs: {},
        enums: {},
        isThirdPartyLib: true,
        isOnlyForTest: false,
        contractDefinition:
         { type: 'ContractDefinition',
           name: 'EIP20Factory',
           baseContracts: [],
           subNodes:
            [ { type: 'StateVariableDeclaration',
                variables: [Array],
                initialValue: null,
                loc: [Object] },
              { type: 'StateVariableDeclaration',
                variables: [Array],
                initialValue: null,
                loc: [Object] },
              { type: 'StateVariableDeclaration',
                variables: [Array],
                initialValue: null,
                loc: [Object] },
              { type: 'FunctionDefinition',
                name: 'EIP20Factory',
                parameters: [],
                returnParameters: null,
                body: [Object],
                visibility: 'public',
                modifiers: [],
                isConstructor: true,
                stateMutability: null,
                loc: [Object] },
              { type: 'FunctionDefinition',
                name: 'verifyEIP20',
                parameters: [Array],
                returnParameters: [Array],
                body: [Object],
                visibility: 'public',
                modifiers: [],
                isConstructor: false,
                stateMutability: 'view',
                loc: [Object] },
              { type: 'FunctionDefinition',
                name: 'codeAt',
                parameters: [Array],
                returnParameters: [Array],
                body: [Object],
                visibility: 'internal',
                modifiers: [],
                isConstructor: false,
                stateMutability: 'view',
                loc: [Object] },
              { type: 'FunctionDefinition',
                name: 'createEIP20',
                parameters: [Array],
                returnParameters: [Array],
                body: [Object],
                visibility: 'public',
                modifiers: [],
                isConstructor: false,
                stateMutability: null,
                loc: [Object] } ],
           kind: 'contract',
           loc:
            { start: { line: 5, column: 0 }, end: { line: 62, column: 0 } } },
        instanceNeeded: false,
        solFilePath:
         '/home/fabianorodrigo/Projetos/bitbucket/solidity-test/workdir/simple-storage/node_modules/truffle/test/sources/ethpm/installed_contracts/tokens/contracts/eip20/EIP20Factory.sol' },
     EIP20Interface:
      { projectGraph: [Circular],
        name: 'EIP20Interface',
        kind: 'contract',
        isAbstract: true,
        functions: {},
        modifiers: {},
        stateVariables:
         { totalSupply:
            { functionsWrite: {},
              contract: [Circular],
              name: 'totalSupply',
              isArray: false,
              initialValue: 0,
              type: 'uint256',
              visibility: 'public',
              storageLocation: undefined,
              isConstant: false,
              isAddressContract: false } },
        dependencies: {},
        inheritsFrom: {},
        structs: {},
        enums: {},
        isThirdPartyLib: true,
        isOnlyForTest: false,
        contractDefinition:
         { type: 'ContractDefinition',
           name: 'EIP20Interface',
           baseContracts: [],
           subNodes:
            [ { type: 'StateVariableDeclaration',
                variables: [Array],
                initialValue: null,
                loc: [Object] },
              { type: 'FunctionDefinition',
                name: 'balanceOf',
                parameters: [Array],
                returnParameters: [Array],
                body: null,
                visibility: 'public',
                modifiers: [],
                isConstructor: false,
                stateMutability: 'view',
                loc: [Object] },
              { type: 'FunctionDefinition',
                name: 'transfer',
                parameters: [Array],
                returnParameters: [Array],
                body: null,
                visibility: 'public',
                modifiers: [],
                isConstructor: false,
                stateMutability: null,
                loc: [Object] },
              { type: 'FunctionDefinition',
                name: 'transferFrom',
                parameters: [Array],
                returnParameters: [Array],
                body: null,
                visibility: 'public',
                modifiers: [],
                isConstructor: false,
                stateMutability: null,
                loc: [Object] },
              { type: 'FunctionDefinition',
                name: 'approve',
                parameters: [Array],
                returnParameters: [Array],
                body: null,
                visibility: 'public',
                modifiers: [],
                isConstructor: false,
                stateMutability: null,
                loc: [Object] },
              { type: 'FunctionDefinition',
                name: 'allowance',
                parameters: [Array],
                returnParameters: [Array],
                body: null,
                visibility: 'public',
                modifiers: [],
                isConstructor: false,
                stateMutability: 'view',
                loc: [Object] },
              { type: 'EventDefinition',
                name: 'Transfer',
                parameters: [Array],
                isAnonymous: false,
                loc: [Object] },
              { type: 'EventDefinition',
                name: 'Approval',
                parameters: [Array],
                isAnonymous: false,
                loc: [Object] } ],
           kind: 'contract',
           loc:
            { start: { line: 5, column: 0 }, end: { line: 48, column: 0 } } },
        instanceNeeded: false,
        solFilePath:
         '/home/fabianorodrigo/Projetos/bitbucket/solidity-test/workdir/simple-storage/node_modules/truffle/test/sources/ethpm/installed_contracts/tokens/contracts/eip20/EIP20Interface.sol' },
     Executable:
      { projectGraph: [Circular],
        name: 'Executable',
        kind: 'contract',
        isAbstract: false,
        functions:
         { constructor:
            [ { name: 'constructor',
                signature: 'constructor()',
                isPayable: false,
                visibility: 'public',
                contract: [Circular],
                isConstructor: true,
                functionDefinition: [Object],
                localVariables: [],
                modifiers: {},
                return: [],
                parameters: [],
                stateVariablesWritten: [Object],
                calledFunctions: {},
                functionCallings: {} } ] },
        modifiers: {},
        stateVariables:
         { x:
            { functionsWrite: { constructor: [Array] },
              contract: [Circular],
              name: 'x',
              isArray: false,
              initialValue: 0,
              type: 'uint',
              visibility: 'public',
              storageLocation: undefined,
              isConstant: false,
              isAddressContract: false } },
        dependencies: {},
        inheritsFrom: {},
        structs: {},
        enums: {},
        isThirdPartyLib: true,
        isOnlyForTest: false,
        contractDefinition:
         { type: 'ContractDefinition',
           name: 'Executable',
           baseContracts: [],
           subNodes:
            [ { type: 'StateVariableDeclaration',
                variables: [Array],
                initialValue: null,
                loc: [Object] },
              { type: 'FunctionDefinition',
                name: null,
                parameters: [],
                body: [Object],
                visibility: 'public',
                modifiers: [],
                isConstructor: true,
                stateMutability: null,
                loc: [Object] } ],
           kind: 'contract',
           loc:
            { start: { line: 3, column: 0 }, end: { line: 10, column: 0 } } },
        instanceNeeded: false,
        solFilePath:
         '/home/fabianorodrigo/Projetos/bitbucket/solidity-test/workdir/simple-storage/node_modules/truffle/test/sources/exec/contracts/Executable.sol' },
     Importer:
      { projectGraph: [Circular],
        name: 'Importer',
        kind: 'contract',
        isAbstract: false,
        functions:
         { constructor:
            [ { name: 'constructor',
                signature: 'constructor()',
                isPayable: false,
                visibility: 'public',
                contract: [Circular],
                isConstructor: true,
                functionDefinition: [Object],
                localVariables: [],
                modifiers: {},
                return: [],
                parameters: [],
                stateVariablesWritten: {},
                calledFunctions: {},
                functionCallings: {} } ] },
        modifiers: {},
        stateVariables:
         { local:
            { functionsWrite: {},
              contract: [Circular],
              name: 'local',
              isArray: false,
              initialValue: 0,
              type: 'uint',
              visibility: 'default',
              storageLocation: undefined,
              isConstant: false,
              isAddressContract: false } },
        dependencies: {},
        inheritsFrom: {},
        structs: {},
        enums: {},
        isThirdPartyLib: true,
        isOnlyForTest: false,
        contractDefinition:
         { type: 'ContractDefinition',
           name: 'Importer',
           baseContracts:
            [ { type: 'InheritanceSpecifier',
                baseName: [Object],
                arguments: [],
                loc: [Object] } ],
           subNodes:
            [ { type: 'StateVariableDeclaration',
                variables: [Array],
                initialValue: null,
                loc: [Object] },
              { type: 'FunctionDefinition',
                name: null,
                parameters: [],
                body: [Object],
                visibility: 'public',
                modifiers: [],
                isConstructor: true,
                stateMutability: null,
                loc: [Object] } ],
           kind: 'contract',
           loc:
            { start: { line: 5, column: 0 }, end: { line: 8, column: 0 } } },
        instanceNeeded: false,
        solFilePath:
         '/home/fabianorodrigo/Projetos/bitbucket/solidity-test/workdir/simple-storage/node_modules/truffle/test/sources/monorepo/errorproject/contracts/Importer.sol' } },
  structs: {},
  enums: {} }